{
	"note": "Multi-chapter fics can also have notes.",
	"endnote": "Honestly you can put whatever properties you want here, just remember to edit <code>layout/ficpage.php</code> to display it!",
	"chapters": [
		{
			"name": "The Setup"
		},
		{
			"name": "The First Crisis"
		},
		{
			"name": "A Moment of Hope"
		},
		{
			"name": "The Hour of Darkness"
		},
		{
			"name": "The Finale"
		},
		{
			"name": "Oh No This Got Popular And Now What?"
		}
	]
}